…
With this number of data points, it’s not surprising that the distribution is reasonably close to gaussian.

I wonder who has the most records in the dataset:

ipf_lifts %>% 
  count(name) %>% 
  arrange(desc(n))

## # A tibble: 17,803 x 2
##    name                      n
##    <chr>                 <int>
##  1 Hiroyuki Isagawa         54
##  2 Dariusz Wszoła           52
##  3 Ielja Strik              50
##  4 Jan Wegiera              47
##  5 Tsung-Ting Hsieh         42
##  6 Hana Takáčová            40
##  7 Hideaki Inaba            39
##  8 Brenda van der Meulen    36
##  9 Chen-Yeh Chao            35
## 10 Vuokko Viitasaari        34
## # … with 17,793 more rows
…
